%YAML 1.1
%TAG !u! tag:unity3d.com,2011:
--- !u!1045 &1
EditorBuildSettings:
  m_ObjectHideFlags: 0
  serializedVersion: 2
  m_Scenes:
  - enabled: 1
    path: Assets/_Scenes/MainMenu.unity
    guid: c0409887ef6f3424f845b78d2e59271f
  - enabled: 1
    path: Assets/_Scenes/LevelSelect.unity
    guid: 7978ff86ce2082047a3ff865f69d9d2e
  - enabled: 1
    path: Assets/_Scenes/Customize.unity
    guid: 19259bceefa4ea44481c0212e4384384
  - enabled: 1
    path: Assets/_Scenes/About.unity
    guid: 8af82d22c194dc5489be61c5492c1f53
  - enabled: 1
    path: Assets/_Scenes/Stage1Level1.unity
    guid: d34d1a025eb90384582b8a911947e3da
  - enabled: 1
    path: Assets/_Scenes/Stage1Level2.unity
    guid: 4caa004554632d24f80c6d32089d4e95
  - enabled: 1
    path: Assets/_Scenes/Stage1Level3.unity
    guid: 8176b72650680004493d94257429a8e3
  - enabled: 1
    path: Assets/_Scenes/Stage2Level1.unity
    guid: b9b762709e27c074a8d32a176b8d7d1e
  - enabled: 1
    path: Assets/_Scenes/Stage2Level2.unity
    guid: 9b5d1d7904e6f314d9a4c2b8782701df
  - enabled: 1
    path: Assets/_Scenes/Stage2Level3.unity
    guid: 43f86e2ed5145aa42903a03705ac828f
  - enabled: 1
    path: Assets/_Scenes/Stage3Level1.unity
    guid: 6dd84b968b2e6c64a8abcf8e123030ca
  m_configObjects: {}
